<?xml version="1.0" encoding="UTF-8"?>
<svg width="33px" height="39px" viewBox="0 0 33 39" version="1.1" xmlns="http://www.w3.org/2000/svg" xmlns:xlink="http://www.w3.org/1999/xlink">
    <!-- Generator: Sketch 48.2 (47327) - http://www.bohemiancoding.com/sketch -->
    <title>Shape</title>
    <desc>Created with Sketch.</desc>
    <defs></defs>
    <g id="2.-Senarai-KPI-2c" stroke="none" stroke-width="1" fill="none" fill-rule="evenodd" transform="translate(-1371.000000, -1726.000000)">
        <g id="ic_flag_black_24px" transform="translate(1361.000000, 1718.000000)" fill="#00A6D9" fill-rule="nonzero">
            <g id="Group">
                <polygon id="Shape" points="30.2851128 13.2589286 29.4438596 8.83928571 10.5156642 8.83928571 10.5156642 46.40625 14.7219298 46.40625 14.7219298 30.9375 26.4994737 30.9375 27.3407268 35.3571429 42.0626566 35.3571429 42.0626566 13.2589286"></polygon>
            </g>
        </g>
    </g>
</svg>